{
  "rabbitmq": {
    "ssl": {
      "private_key_file": "/etc/sensu/ssl/key.pem",
      "cert_chain_file": "/etc/sensu/ssl/cert.pem"
    },
    "host": "localhost",
    "port": 5671,
    "user": "sensu",
    "password": "mypass",
    "vhost": "/sensu"
  },
  "redis": {
    "host": "localhost",
    "port": 6379
  },
  "api": {
    "host": "localhost",
    "port": 4567
  },
  "dashboard": {
    "port": 8080,
    "user": "admin",
    "password": "secret"
  },
  "handlers": {
    "default": {
      "type": "set",
      "handlers": [
        "stdout"
      ]
    },
    "stdout": {
      "type": "pipe",
      "command": "cat"
    }
  },
  "checks": {
    "test": {
      "command": "echo -n OK",
      "subscribers": [
        "test"
      ],
      "interval": 60
    }
  },
  "client": {
    "name": "localhost",
    "address": "127.0.0.1",
    "subscriptions": [
      "test"
    ]
  }
}
